// Jest Snapshot v1, https://goo.gl/fbAQLP

exports[`login screen testing should render correctly 1`] = `
<RCTScrollView
  contentContainerStyle={
    Object {
      "backgroundColor": "#FFFFFF",
      "flexGrow": 1,
    }
  }
  testID="LoginScreen"
>
  <View>
    <View
      style={
        Object {
          "backgroundColor": "#FFFFFF",
          "flex": 1,
          "padding": 24,
        }
      }
    >
      <Image
        height={70}
        source={
          Object {
            "testUri": "../../../src/assets/images/logo.png",
          }
        }
        style={
          Object {
            "alignSelf": "center",
            "height": 150,
            "marginTop": 50,
            "width": 150,
          }
        }
        width={70}
      />
      <View>
        <Text
          style={
            Object {
              "color": "#1E1B26",
              "fontFamily": "Roboto-Bold",
              "fontSize": 22,
              "lineHeight": 30,
              "paddingTop": 20,
              "textAlign": "center",
            }
          }
        >
          Welcome to Book Store
        </Text>
        <View
          style={
            Object {
              "paddingTop": 20,
            }
          }
        >
          <View
            style={
              Object {
                "paddingVertical": 12,
              }
            }
          >
            <Text>
              Email
            </Text>
            <View
              style={
                Array [
                  Object {
                    "borderRadius": 7,
                    "borderWidth": 1,
                    "height": 45,
                    "marginTop": 5,
                    "paddingHorizontal": 10,
                  },
                  Object {
                    "alignItems": "baseline",
                    "borderColor": "#2D3038",
                  },
                  Object {
                    "flexDirection": undefined,
                  },
                ]
              }
            >
              <View />
              <TextInput
                onBlur={[Function]}
                onChangeText={[Function]}
                placeholder="Enter Email"
                style={
                  Array [
                    Object {
                      "flex": 1,
                      "width": "100%",
                    },
                    undefined,
                  ]
                }
                testID="input-email"
              />
            </View>
          </View>
          <View
            style={
              Object {
                "paddingVertical": 12,
              }
            }
          >
            <Text>
              Password
            </Text>
            <View
              style={
                Array [
                  Object {
                    "borderRadius": 7,
                    "borderWidth": 1,
                    "height": 45,
                    "marginTop": 5,
                    "paddingHorizontal": 10,
                  },
                  Object {
                    "alignItems": "center",
                    "borderColor": "#2D3038",
                  },
                  Object {
                    "flexDirection": "row-reverse",
                  },
                ]
              }
            >
              <View>
                <View
                  accessible={true}
                  collapsable={false}
                  focusable={true}
                  onClick={[Function]}
                  onResponderGrant={[Function]}
                  onResponderMove={[Function]}
                  onResponderRelease={[Function]}
                  onResponderTerminate={[Function]}
                  onResponderTerminationRequest={[Function]}
                  onStartShouldSetResponder={[Function]}
                  style={
                    Object {
                      "opacity": 1,
                    }
                  }
                >
                  <Text
                    allowFontScaling={false}
                    selectable={false}
                    style={
                      Array [
                        Object {
                          "color": "#2D3038",
                          "fontSize": 24,
                        },
                        undefined,
                        Object {
                          "fontFamily": "Feather",
                          "fontStyle": "normal",
                          "fontWeight": "normal",
                        },
                        Object {},
                      ]
                    }
                  >
                    
                  </Text>
                </View>
              </View>
              <TextInput
                onBlur={[Function]}
                onChangeText={[Function]}
                placeholder="Enter Password"
                secureTextEntry={true}
                style={
                  Array [
                    Object {
                      "flex": 1,
                      "width": "100%",
                    },
                    undefined,
                  ]
                }
                testID="input-password"
              />
            </View>
          </View>
          <View
            accessible={true}
            collapsable={false}
            focusable={true}
            onClick={[Function]}
            onResponderGrant={[Function]}
            onResponderMove={[Function]}
            onResponderRelease={[Function]}
            onResponderTerminate={[Function]}
            onResponderTerminationRequest={[Function]}
            onStartShouldSetResponder={[Function]}
            style={
              Object {
                "alignItems": "center",
                "backgroundColor": "#F96D41",
                "borderRadius": 7,
                "height": 45,
                "justifyContent": "space-evenly",
                "marginVertical": 5,
                "opacity": 1,
                "paddingHorizontal": 5,
              }
            }
            testID="btn-login"
          >
            <View
              style={
                Array [
                  Object {
                    "flexDirection": "row",
                  },
                ]
              }
            >
              <Text
                style={
                  Object {
                    "color": "#FFFFFF",
                    "paddingLeft": 0,
                  }
                }
              >
                Login
              </Text>
            </View>
          </View>
          <View
            style={
              Object {
                "alignItems": "center",
                "justifyContent": "center",
                "marginTop": 15,
              }
            }
          >
            <Text
              style={
                Object {
                  "fontFamily": "Roboto-Regular",
                  "fontSize": 16,
                  "lineHeight": 22,
                }
              }
            >
              Dont have an account?
            </Text>
            <View
              accessible={true}
              collapsable={false}
              focusable={true}
              onClick={[Function]}
              onResponderGrant={[Function]}
              onResponderMove={[Function]}
              onResponderRelease={[Function]}
              onResponderTerminate={[Function]}
              onResponderTerminationRequest={[Function]}
              onStartShouldSetResponder={[Function]}
              style={
                Object {
                  "opacity": 1,
                }
              }
              testID="btn-go-register"
            >
              <Text
                style={
                  Object {
                    "color": "#F96D41",
                    "fontFamily": "Roboto-Bold",
                    "fontSize": 16,
                    "lineHeight": 22,
                    "marginTop": 7,
                  }
                }
              >
                REGISTER
              </Text>
            </View>
          </View>
        </View>
      </View>
    </View>
  </View>
</RCTScrollView>
`;
